<?xml version="1.0" encoding="UTF-8"?>
<svg height="128px" viewBox="0 0 128 128" width="128px" xmlns="http://www.w3.org/2000/svg" xmlns:xlink="http://www.w3.org/1999/xlink">
    <linearGradient id="a" gradientTransform="matrix(-0.707107 0.707107 0.707107 0.707107 77.284706 -168.995785)" gradientUnits="userSpaceOnUse" x1="166.100281" x2="220.547485" y1="170.777023" y2="170.777023">
        <stop offset="0" stop-color="#e8e7e4"/>
        <stop offset="0.511049" stop-color="#ffffff"/>
        <stop offset="1" stop-color="#c2bfba"/>
    </linearGradient>
    <linearGradient id="b" gradientUnits="userSpaceOnUse">
        <stop offset="0" stop-color="#c0bfbc"/>
        <stop offset="1" stop-color="#f6f5f4"/>
    </linearGradient>
    <linearGradient id="c" gradientTransform="matrix(-0.883907 0.723241 0.883907 0.723241 74.151802 156.701813)" x1="88.507896" x2="85.886963" xlink:href="#b" y1="67.679771" y2="70.300697"/>
    <linearGradient id="d" gradientTransform="matrix(-0.707107 0.707107 0.707107 0.707107 77.284706 3.004215)" gradientUnits="userSpaceOnUse" x1="181.980896" x2="221.011337" y1="174.566666" y2="174.566666">
        <stop offset="0" stop-color="#f0f0f0"/>
        <stop offset="1" stop-color="#9a999a"/>
    </linearGradient>
    <linearGradient id="e" gradientTransform="matrix(-0.707107 0.707107 0.707107 0.707107 77.284691 2.998355)" x1="192.267563" x2="189.317764" xlink:href="#b" y1="176.766052" y2="179.862961"/>
    <clipPath id="f">
        <rect height="128" width="128"/>
    </clipPath>
    <clipPath id="g">
        <rect height="128" width="128"/>
    </clipPath>
    <filter id="h" height="100%" width="100%" x="0%" y="0%">
        <feColorMatrix in="SourceGraphic" type="matrix" values="0 0 0 0 1 0 0 0 0 1 0 0 0 0 1 0 0 0 1 0"/>
    </filter>
    <mask id="i">
        <g clip-path="url(#g)" filter="url(#h)">
            <g clip-path="url(#f)">
                <path d="m 64 8.003906 c -10.40625 0 -20.816406 0.617188 -22.648438 1.851563 c -3.664062 2.464843 -15.394531 35.917969 -13.996093 39.910156 c 0.71875 2.046875 13.503906 11.386719 17.835937 14.285156 c 4.332032 2.894531 33.285156 2.894531 37.617188 0 c 4.332031 -2.898437 17.113281 -12.238281 17.832031 -14.285156 c 1.402344 -3.992187 -10.332031 -37.445313 -13.996094 -39.910156 c -1.832031 -1.234375 -12.238281 -1.851563 -22.644531 -1.851563 z m -18.257812 5.464844 h 36.511718 c 1.390625 0 2.511719 1.039062 2.511719 2.324219 c 0 1.289062 -1.121094 2.328125 -2.511719 2.328125 h -36.511718 c -1.390626 0 -2.511719 -1.039063 -2.511719 -2.328125 c 0 -1.285157 1.121093 -2.324219 2.511719 -2.324219 z m 0 0" fill="#26a269"/>
                <path d="m 64 5.492188 c -10.40625 0 -20.816406 0.617187 -22.648438 1.851562 c -3.664062 2.464844 -15.394531 35.917969 -13.996093 39.910156 c 0.71875 2.050782 13.503906 11.390625 17.835937 14.285156 c 4.332032 2.894532 33.285156 2.894532 37.617188 0 c 4.332031 -2.894531 17.113281 -12.234374 17.832031 -14.285156 c 1.402344 -3.992187 -10.332031 -37.445312 -13.996094 -39.910156 c -1.832031 -1.234375 -12.238281 -1.851562 -22.644531 -1.851562 z m -18.257812 5.464843 h 36.511718 c 1.390625 0 2.511719 1.039063 2.511719 2.328125 c 0 1.285156 -1.121094 2.324219 -2.511719 2.324219 h -36.511718 c -1.390626 0 -2.511719 -1.039063 -2.511719 -2.324219 c 0 -1.289062 1.121093 -2.328125 2.511719 -2.328125 z m 0 0" fill="#2ec27e"/>
                <path d="m 64 28.496094 c -13.199219 0 -26.398438 0.886718 -27.054688 2.667968 c -1.097656 2.972657 -3.84375 12.558594 -4.078124 14.273438 c -0.234376 1.710938 62.496093 1.710938 62.265624 0 c -0.238281 -1.714844 -2.984374 -11.300781 -4.082031 -14.273438 c -0.65625 -1.78125 -13.851562 -2.667968 -27.050781 -2.667968 z m 0 0" fill="#26a269"/>
                <path d="m 64 30.476562 c -13.199219 0 -26.398438 0.890626 -27.054688 2.667969 c -1.097656 2.972657 -3.84375 12.558594 -4.078124 14.273438 c -0.234376 1.714843 62.496093 1.714843 62.265624 0 c -0.238281 -1.714844 -2.984374 -11.300781 -4.082031 -14.273438 c -0.65625 -1.777343 -13.851562 -2.667969 -27.050781 -2.667969 z m 0 0" fill="#8ff0a4"/>
                <path d="m 64 30 c -13.199219 0 -26.398438 0.886719 -27.054688 2.667969 c -1.097656 2.972656 -3.84375 12.558593 -4.078124 14.269531 c -0.234376 1.714844 62.496093 1.714844 62.265624 0 c -0.238281 -1.710938 -2.984374 -11.296875 -4.082031 -14.269531 c -0.65625 -1.78125 -13.851562 -2.667969 -27.050781 -2.667969 z m 0 0" fill="#2ec27e"/>
                <use fill="#26a269" x="52" xlink:href="#n" y="52.047852"/>
                <use fill="#26a269" x="64" xlink:href="#n" y="52.047852"/>
                <use fill="#26a269" x="76" xlink:href="#n" y="52.047852"/>
                <use fill="#26a269" x="40.054688" xlink:href="#n" y="52.047852"/>
                <path d="m 52 64.621094 v 55 l 3 3 h 7 l 9 -9 v -1 l -2 -1 l 2 -2 v -2 h -2 l -2 -2 l 4 -4 v -2 h -2 l 2 -2 v -2 h -2 l -1 -1 l 3 -3 v -3 l -2 -2 l 2 -2 v -6 l 5 -0.167969 v -13.832031 z m 0 0" fill="#77767b"/>
                <path d="m 52 64.621094 h 24 v 11.832031 l -5 0.167969 v 6 l -2 2 l 2 2 v 3 l -3 3 l 3 3 l -2 2 l 2 2 l -4 4 l 4 4 l -2 2 l 1.746094 2.621094 l -8.746094 8.378906 h -7 l -3 -3 z m 0 0" fill="url(#a)"/>
                <path d="m 56.476562 243.460938 c 1.585938 -1.296876 4.296876 -0.359376 4.265626 1.476562 v 48.582031 h -5 v -48.582031 c -0.007813 -0.554688 0.253906 -1.085938 0.734374 -1.476562 z m 0 0" fill="url(#c)" stroke="url(#d)" stroke-dasharray="0 5.48787" stroke-dashoffset="4.98898" stroke-width="0.498898" transform="matrix(1 0 0 1 0 -172)"/>
                <path d="m 68.660156 246.550781 c -1.199218 0 -2.171875 0.902344 -2.308594 2.0625 h -0.027343 v 2.007813 l -0.035157 38.65625 l 4.710938 -4.664063 l -2 -3 l 2 -2 l -4 -4 l 4 -4 l -2 -2 l 2 -2 l -3 -3 l 3 -3 v -3 l -2 -2 l 2 -2 v -6 h -0.027344 c -0.136718 -1.160156 -1.109375 -2.0625 -2.3125 -2.0625 z m 0 0" fill="url(#e)" stroke="#f6f5f4" stroke-dasharray="0 5.5" stroke-width="0.5" transform="matrix(1 0 0 1 0 -172)"/>
            </g>
        </g>
    </mask>
    <mask id="j">
        <g filter="url(#h)">
            <rect fill-opacity="0.8" height="128" width="128"/>
        </g>
    </mask>
    <linearGradient id="k" gradientTransform="matrix(0 0.37 -0.98462 0 295.38501 -30.360001)" gradientUnits="userSpaceOnUse" x1="300" x2="428" y1="235" y2="235">
        <stop offset="0" stop-color="#f9f06b"/>
        <stop offset="1" stop-color="#f5c211"/>
    </linearGradient>
    <clipPath id="l">
        <rect height="128" width="128"/>
    </clipPath>
    <clipPath id="m">
        <rect height="128" width="128"/>
    </clipPath>
    <symbol id="n" overflow="visible">
        <path d="m 9.875 -8.6875 l 1.015625 -1.671875 l -4.078125 -1.96875 l 4.09375 -1.875 l -1.03125 -1.71875 l -3.421875 2.640625 l 0.484375 -4.3125 h -2.03125 l 0.53125 4.328125 l -3.390625 -2.6875 l -1.03125 1.65625 l 4.078125 1.9375 l -4.125 1.953125 l 1.03125 1.671875 l 3.4375 -2.6875 l -0.53125 4.3125 h 2.03125 l -0.484375 -4.25 z m 0 0"/>
    </symbol>
    <path d="m 64 8.003906 c -10.40625 0 -20.816406 0.617188 -22.648438 1.851563 c -3.664062 2.464843 -15.394531 35.917969 -13.996093 39.910156 c 0.71875 2.046875 13.503906 11.386719 17.835937 14.285156 c 4.332032 2.894531 33.285156 2.894531 37.617188 0 c 4.332031 -2.898437 17.113281 -12.238281 17.832031 -14.285156 c 1.402344 -3.992187 -10.332031 -37.445313 -13.996094 -39.910156 c -1.832031 -1.234375 -12.238281 -1.851563 -22.644531 -1.851563 z m -18.257812 5.464844 h 36.511718 c 1.390625 0 2.511719 1.039062 2.511719 2.324219 c 0 1.289062 -1.121094 2.328125 -2.511719 2.328125 h -36.511718 c -1.390626 0 -2.511719 -1.039063 -2.511719 -2.328125 c 0 -1.285157 1.121093 -2.324219 2.511719 -2.324219 z m 0 0" fill="#26a269"/>
    <path d="m 64 5.492188 c -10.40625 0 -20.816406 0.617187 -22.648438 1.851562 c -3.664062 2.464844 -15.394531 35.917969 -13.996093 39.910156 c 0.71875 2.050782 13.503906 11.390625 17.835937 14.285156 c 4.332032 2.894532 33.285156 2.894532 37.617188 0 c 4.332031 -2.894531 17.113281 -12.234374 17.832031 -14.285156 c 1.402344 -3.992187 -10.332031 -37.445312 -13.996094 -39.910156 c -1.832031 -1.234375 -12.238281 -1.851562 -22.644531 -1.851562 z m -18.257812 5.464843 h 36.511718 c 1.390625 0 2.511719 1.039063 2.511719 2.328125 c 0 1.285156 -1.121094 2.324219 -2.511719 2.324219 h -36.511718 c -1.390626 0 -2.511719 -1.039063 -2.511719 -2.324219 c 0 -1.289062 1.121093 -2.328125 2.511719 -2.328125 z m 0 0" fill="#2ec27e"/>
    <path d="m 64 28.496094 c -13.199219 0 -26.398438 0.886718 -27.054688 2.667968 c -1.097656 2.972657 -3.84375 12.558594 -4.078124 14.273438 c -0.234376 1.710938 62.496093 1.710938 62.265624 0 c -0.238281 -1.714844 -2.984374 -11.300781 -4.082031 -14.273438 c -0.65625 -1.78125 -13.851562 -2.667968 -27.050781 -2.667968 z m 0 0" fill="#26a269"/>
    <path d="m 64 30.476562 c -13.199219 0 -26.398438 0.890626 -27.054688 2.667969 c -1.097656 2.972657 -3.84375 12.558594 -4.078124 14.273438 c -0.234376 1.714843 62.496093 1.714843 62.265624 0 c -0.238281 -1.714844 -2.984374 -11.300781 -4.082031 -14.273438 c -0.65625 -1.777343 -13.851562 -2.667969 -27.050781 -2.667969 z m 0 0" fill="#8ff0a4"/>
    <path d="m 64 30 c -13.199219 0 -26.398438 0.886719 -27.054688 2.667969 c -1.097656 2.972656 -3.84375 12.558593 -4.078124 14.269531 c -0.234376 1.714844 62.496093 1.714844 62.265624 0 c -0.238281 -1.710938 -2.984374 -11.296875 -4.082031 -14.269531 c -0.65625 -1.78125 -13.851562 -2.667969 -27.050781 -2.667969 z m 0 0" fill="#2ec27e"/>
    <g fill="#26a269">
        <use x="52" xlink:href="#n" y="52.047852"/>
        <use x="64" xlink:href="#n" y="52.047852"/>
        <use x="76" xlink:href="#n" y="52.047852"/>
        <use x="40.054688" xlink:href="#n" y="52.047852"/>
    </g>
    <path d="m 52 64.621094 v 55 l 3 3 h 7 l 9 -9 v -1 l -2 -1 l 2 -2 v -2 h -2 l -2 -2 l 4 -4 v -2 h -2 l 2 -2 v -2 h -2 l -1 -1 l 3 -3 v -3 l -2 -2 l 2 -2 v -6 l 5 -0.167969 v -13.832031 z m 0 0" fill="#77767b"/>
    <path d="m 52 64.621094 h 24 v 11.832031 l -5 0.167969 v 6 l -2 2 l 2 2 v 3 l -3 3 l 3 3 l -2 2 l 2 2 l -4 4 l 4 4 l -2 2 l 1.746094 2.621094 l -8.746094 8.378906 h -7 l -3 -3 z m 0 0" fill="url(#a)"/>
    <path d="m 56.476562 243.460938 c 1.585938 -1.296876 4.296876 -0.359376 4.265626 1.476562 v 48.582031 h -5 v -48.582031 c -0.007813 -0.554688 0.253906 -1.085938 0.734374 -1.476562 z m 0 0" fill="url(#c)" stroke="url(#d)" stroke-dasharray="0 5.48787" stroke-dashoffset="4.98898" stroke-width="0.498898" transform="matrix(1 0 0 1 0 -172)"/>
    <path d="m 68.660156 246.550781 c -1.199218 0 -2.171875 0.902344 -2.308594 2.0625 h -0.027343 v 2.007813 l -0.035157 38.65625 l 4.710938 -4.664063 l -2 -3 l 2 -2 l -4 -4 l 4 -4 l -2 -2 l 2 -2 l -3 -3 l 3 -3 v -3 l -2 -2 l 2 -2 v -6 h -0.027344 c -0.136718 -1.160156 -1.109375 -2.0625 -2.3125 -2.0625 z m 0 0" fill="url(#e)" stroke="#f6f5f4" stroke-dasharray="0 5.5" stroke-width="0.5" transform="matrix(1 0 0 1 0 -172)"/>
    <g clip-path="url(#m)" mask="url(#i)">
        <g clip-path="url(#l)" mask="url(#j)">
            <path d="m 128 80.640625 v 47.359375 h -128 v -47.359375 z m 0 0" fill="url(#k)"/>
            <path d="m 13.308594 80.640625 l 47.355468 47.359375 h 21.214844 l -47.359375 -47.359375 z m 42.421875 0 l 47.363281 47.359375 h 21.214844 l -47.363282 -47.359375 z m 42.429687 0 l 29.839844 29.839844 v -21.210938 l -8.628906 -8.628906 z m -98.160156 7.90625 v 21.214844 l 18.238281 18.238281 h 21.214844 z m 0 0"/>
        </g>
    </g>
</svg>
